<?xml version="1.0" encoding="UTF-8" standalone="no"?>
<!-- Generator: Adobe Illustrator 21.1.0, SVG Export Plug-In . SVG Version: 6.00 Build 0)  -->

<svg
   version="1.1"
   id="Layer_1"
   x="0px"
   y="0px"
   viewBox="0 0 375.3 386.8"
   style="enable-background:new 0 0 375.3 386.8;"
   xml:space="preserve"
   sodipodi:docname="F_In_Sandbox_Icon_-_Backround.svg"
   inkscape:version="1.1 (c68e22c387, 2021-05-23)"
   inkscape:export-filename="/home/nephros/devel/sailfish/harbour-fbjail/icons/Edit_In_Sandbox_Icon_-_Background.png"
   inkscape:export-xdpi="171.38446"
   inkscape:export-ydpi="171.38446"
   xmlns:inkscape="http://www.inkscape.org/namespaces/inkscape"
   xmlns:sodipodi="http://sodipodi.sourceforge.net/DTD/sodipodi-0.dtd"
   xmlns="http://www.w3.org/2000/svg"
   xmlns:svg="http://www.w3.org/2000/svg"><defs
   id="defs95"><linearGradient
     id="linearGradient1794"
     inkscape:swatch="solid"><stop
       style="stop-color:#7699ff;stop-opacity:1;"
       offset="0"
       id="stop1792" /></linearGradient><linearGradient
     id="SVGID_1_"
     gradientUnits="userSpaceOnUse"
     x1="12.8064"
     y1="12.8066"
     x2="73.193497"
     y2="73.193703"
     gradientTransform="translate(0.45707126,-1.3712138)"><stop
       offset="0.0054"
       style="stop-color:#1E9BFF"
       id="stop3" /><stop
       offset="1"
       style="stop-color:#00C8DE"
       id="stop5" /></linearGradient></defs><sodipodi:namedview
   id="namedview93"
   pagecolor="#ffffff"
   bordercolor="#666666"
   borderopacity="1.0"
   inkscape:pageshadow="2"
   inkscape:pageopacity="0.0"
   inkscape:pagecheckerboard="0"
   showgrid="false"
   inkscape:zoom="0.7979631"
   inkscape:cx="139.10418"
   inkscape:cy="181.71266"
   inkscape:window-width="1366"
   inkscape:window-height="720"
   inkscape:window-x="0"
   inkscape:window-y="0"
   inkscape:window-maximized="1"
   inkscape:current-layer="layer1" />
<style
   type="text/css"
   id="style2">
	.st0{fill:none;stroke:#999999;stroke-width:6;stroke-linecap:round;stroke-linejoin:round;stroke-miterlimit:10;}
	.st1{fill:#FFFFFF;stroke:#999999;stroke-width:6;stroke-linecap:round;stroke-linejoin:round;stroke-miterlimit:10;}
	.st2{fill:#BFBFBF;}
	.st3{clip-path:url(#SVGID_2_);}
	.st4{fill:#999999;stroke:#999999;stroke-width:6;stroke-linecap:round;stroke-linejoin:round;stroke-miterlimit:10;}
	.st5{fill:none;stroke:#999999;stroke-width:7;stroke-linecap:round;stroke-linejoin:round;stroke-miterlimit:10;}
	.st6{fill:none;stroke:#333333;stroke-width:7;stroke-linecap:round;stroke-linejoin:round;stroke-miterlimit:10;}
	.st7{fill:#E2E0E0;stroke:#E2E0E0;stroke-width:4;stroke-linejoin:round;stroke-miterlimit:10;}
	.st8{fill:#A0A0A0;stroke:#A0A0A0;stroke-width:4;stroke-miterlimit:10;}
	.st9{fill:#999999;stroke:#999999;stroke-width:4;stroke-linecap:round;stroke-linejoin:round;stroke-miterlimit:10;}
	.st10{fill:#3D3D3D;stroke:#3D3D3D;stroke-width:4;stroke-miterlimit:10;}
	.st11{fill:none;stroke:#999999;stroke-width:6;stroke-miterlimit:10;}
</style>










<g
   inkscape:groupmode="layer"
   id="layer5"
   inkscape:label="world"
   style="display:inline"><g
     id="Layer_1-0"
     transform="matrix(4.3756853,0,0,4.3756853,-1.477997,4.5809182)"
     style="display:inline"><linearGradient
       id="linearGradient1208"
       gradientUnits="userSpaceOnUse"
       x1="12.8064"
       y1="12.8066"
       x2="73.193497"
       y2="73.193703"><stop
         offset="0.0054"
         style="stop-color:#1E9BFF"
         id="stop1204" /><stop
         offset="1"
         style="stop-color:#00C8DE"
         id="stop1206" /></linearGradient></g></g><g
   inkscape:groupmode="layer"
   id="layer1"
   inkscape:label="sandbox"
   style="display:inline"><rect
     x="55.409962"
     y="274.29999"
     class="st0"
     width="317.60001"
     height="34.5"
     id="rect4"
     inkscape:export-filename="D:\gantner\Nextcloud-PNO\_transfer\Edit_In_Sandbox_Icon_-_Grayscale.png"
     inkscape:export-xdpi="300"
     inkscape:export-ydpi="300"
     style="fill:#f2f2f2" /><rect
     x="74.709961"
     y="308.79999"
     class="st0"
     width="279"
     height="73.900002"
     id="rect6"
     inkscape:export-filename="D:\gantner\Nextcloud-PNO\_transfer\Edit_In_Sandbox_Icon_-_Grayscale.png"
     inkscape:export-xdpi="300"
     inkscape:export-ydpi="300"
     style="fill:#e6e6e6" /><line
     class="st0"
     x1="55.409962"
     y1="274.29999"
     x2="96.009964"
     y2="206.2"
     id="line8"
     inkscape:export-filename="D:\gantner\Nextcloud-PNO\_transfer\Edit_In_Sandbox_Icon_-_Grayscale.png"
     inkscape:export-xdpi="300"
     inkscape:export-ydpi="300" /><line
     class="st0"
     x1="373.00995"
     y1="274.29999"
     x2="332.40994"
     y2="205.39999"
     id="line10"
     inkscape:export-filename="D:\gantner\Nextcloud-PNO\_transfer\Edit_In_Sandbox_Icon_-_Grayscale.png"
     inkscape:export-xdpi="300"
     inkscape:export-ydpi="300" /><g
     id="g18"
     inkscape:export-filename="D:\gantner\Nextcloud-PNO\_transfer\Edit_In_Sandbox_Icon_-_Grayscale.png"
     inkscape:export-xdpi="300"
     inkscape:export-ydpi="300"
     transform="translate(50.509963)">
	<path
   class="st1"
   d="m 98.9,199.8 c -46.1,0 -50.8,50.8 -50.8,50.8 h 107.3 v 0 c 0,0 -10.4,-50.8 -56.5,-50.8 z"
   id="path12"
   inkscape:export-filename="D:\gantner\Nextcloud-PNO\_transfer\F_In_Sandbox_Icon_-_Grayscale.png"
   inkscape:export-xdpi="300"
   inkscape:export-ydpi="300"
   style="fill:#ffc33c;fill-opacity:1" />
	<circle
   class="st2"
   cx="69.099998"
   cy="223.60001"
   r="1.9"
   id="circle14" />
	<circle
   class="st2"
   cx="74.699997"
   cy="237.7"
   r="1.9"
   id="circle16" />
</g><line
     class="st0"
     x1="96.009964"
     y1="206.2"
     x2="332.40994"
     y2="205.39999"
     id="line20"
     inkscape:export-filename="D:\gantner\Nextcloud-PNO\_transfer\Edit_In_Sandbox_Icon_-_Grayscale.png"
     inkscape:export-xdpi="300"
     inkscape:export-ydpi="300" /><g
     id="g76"
     inkscape:export-filename="D:\gantner\Nextcloud-PNO\_transfer\Edit_In_Sandbox_Icon_-_Grayscale.png"
     inkscape:export-xdpi="300"
     inkscape:export-ydpi="300"
     transform="translate(50.509963)">
	<g
   id="g52">
		<path
   class="st1"
   d="m 239.7,196.3 c -30.3,0 -37.6,38.3 -37.6,38.3 0,0 -8.9,-35.5 -47.4,-35.5 -38.5,0 -52.9,51.5 -52.9,51.5 H 130 272.6 c -0.1,0 -2.5,-54.3 -32.9,-54.3 z"
   id="path50"
   style="fill:#ffdd55;fill-opacity:1" />
	</g>
	<circle
   class="st2"
   cx="235.7"
   cy="210.89999"
   r="1.9"
   id="circle54" />
	<circle
   class="st2"
   cx="251.2"
   cy="232.10001"
   r="1.9"
   id="circle56" />
	<circle
   class="st2"
   cx="227.2"
   cy="229.3"
   r="1.9"
   id="circle58" />
	<circle
   class="st2"
   cx="187.7"
   cy="236.3"
   r="1.9"
   id="circle60" />
	<circle
   class="st2"
   cx="173.5"
   cy="222.2"
   r="1.9"
   id="circle62" />
	<circle
   class="st2"
   cx="148.10001"
   cy="233.5"
   r="1.9"
   id="circle64" />
	<circle
   class="st2"
   cx="159.39999"
   cy="216.60001"
   r="1.9"
   id="circle66" />
	
		<circle
   transform="matrix(0.5498,-0.8353,0.8353,0.5498,-110.6286,220.4445)"
   class="st2"
   cx="149.2"
   cy="212.89999"
   id="ellipse68"
   r="1.9" />
	<circle
   class="st2"
   cx="121.3"
   cy="239.10001"
   r="1.9"
   id="circle70" />
	<circle
   class="st2"
   cx="136"
   cy="220.3"
   r="1.9"
   id="circle72" />
	<circle
   class="st2"
   cx="166.5"
   cy="236.3"
   r="1.9"
   id="circle74" />
</g><line
     class="st11"
     x1="191.80997"
     y1="250.60001"
     x2="103.20996"
     y2="250.60001"
     id="line90"
     inkscape:export-filename="D:\gantner\Nextcloud-PNO\_transfer\Edit_In_Sandbox_Icon_-_Grayscale.png"
     inkscape:export-xdpi="300"
     inkscape:export-ydpi="300" /><path
     style="fill:#4267b2;fill-opacity:1;fill-rule:nonzero;stroke:none;stroke-width:3.73468"
     d="m 227.25996,259.96049 h 1.86733 32.50352 1.86736 z m 41.06705,-11.46668 V 196.3 h 21.88295 l 8.02378,-40.1042 h -29.90673 v -11.46668 c 0,-3.1949 0.29176,-3.44293 1.37133,-4.14318 1.06497,-0.68566 4.39119,-1.59014 10.08076,-1.59014 h 17.18541 v -32.25552 l -3.26784,-1.54639 c 0,0 -13.15897,-6.2877 -31.10301,-6.2877 -12.89637,0 -23.48773,5.1352 -30.25685,13.5966 -6.78373,8.476 -9.84735,19.8114 -9.84735,32.22633 V 156.1958 H 205.30405 V 196.3 h 17.18541 v 52.19381 z m -5.73335,-138.13554 c 11.90434,0 19.40289,2.62596 22.91876,4.01188 v 13.17353 h -5.73332 c -6.59408,0 -11.87518,0.53979 -16.32471,3.44294 -4.44954,2.88855 -6.59405,8.37387 -6.59405,13.7425 v 22.91877 h 27.38289 l -3.42834,17.18543 h -23.95455 v 63.66049 h -22.9188 v -63.66049 h -17.18541 v -17.18543 h 17.18541 v -22.91877 c 0,-10.50382 2.66974,-19.21323 7.35268,-25.06331 4.66838,-5.85004 11.27705,-9.30754 21.29944,-9.30754 z"
     id="path2419"
     sodipodi:nodetypes="ccccccccccscscccscsccccccsccscsccccccccccscs"
     inkscape:export-filename="D:\gantner\Nextcloud-PNO\_transfer\Edit_In_Sandbox_Icon_-_Grayscale.png"
     inkscape:export-xdpi="300"
     inkscape:export-ydpi="300" /><path
     style="fill:#b3b3b3;fill-opacity:1;stroke:#000000;stroke-width:0.0626595;paint-order:stroke fill markers"
     d="m 61.318733,270.80734 c 0,-0.10734 8.212316,-13.98991 18.249591,-30.85016 l 18.249591,-30.65501 8.591695,-0.01 8.59169,-0.01 -2.3423,2.42806 c -7.65145,7.93162 -13.144193,18.91812 -16.060371,32.12375 -1.085,4.91332 -1.286529,6.92349 -0.809561,8.075 0.835947,2.01816 -8.865045,1.86146 115.246362,1.86146 h 113.09199 l 0.9409,-0.79171 c 1.21722,-1.02423 1.498,-2.2998 0.82051,-3.72752 -0.35196,-0.7417 -0.87154,-1.22833 -1.58816,-1.48746 -0.81097,-0.29325 -1.06507,-0.56568 -1.06507,-1.1419 0,-0.73484 0.0371,-0.72323 1.28106,0.40059 0.70457,0.63655 1.34536,1.09305 1.42395,1.01445 0.22036,-0.22036 -0.7413,-7.55579 -1.59868,-12.19463 -1.62152,-8.77307 -4.00942,-16.37405 -7.16296,-22.80052 -1.05696,-2.15392 -1.97114,-4.02196 -2.03153,-4.15119 -0.0604,-0.12924 3.40222,-0.23497 7.69469,-0.23497 h 7.80447 l 14.9961,25.45543 c 8.24785,14.00049 16.51214,28.0284 18.36509,31.17312 l 3.369,5.71769 H 214.34776 c -84.16596,0 -153.029027,-0.0878 -153.029027,-0.19517 z"
     id="path1287" /></g></svg>
